…
This function is best used to patch together factors from multiple sources that should have the same levels.

There is also a neat function called `fct_cross()` which computes a factor whose levels are the combinations of the levels of all input factors

```r
starwars %>%
  mutate(sex_gender = fct_cross(sex, gender)) %>%
  select(name, sex_gender, sex, gender)
```

Output
```
# A tibble: 87 × 4
   name               sex_gender      sex    gender   
   <chr>              <fct>           <chr>  <chr>    
 1 Luke Skywalker     male:masculine  male   masculine
 2 C-3PO              none:masculine  none   masculine
 3 R2-D2              none:masculine  none   masculine
 4 Darth Vader        male:masculine  male   masculine
 5 Leia Organa        female:feminine female feminine 
 6 Owen Lars          male:masculine  male   masculine
 7 Beru Whitesun lars female:feminine female feminine 
 8 R5-D4              none:masculine  none   masculine
 9 Biggs Darklighter  male:masculine  male   masculine
10 Obi-Wan Kenobi     male:masculine  male   masculine
# … with 77 more rows
```
…
